\relax 
\catcode `"\active 
\babel@aux{brazilian}{}
\@writefile{toc}{\contentsline {paragraph}{\emph  {Todas as mensagens nos programas usam apenas ASCII, pra n\IeC {\~a}o ter problemas nos terminais}}{1}\protected@file@percent }
\@writefile{toc}{\contentsline {paragraph}{1}{1}\protected@file@percent }
\@writefile{lol}{\contentsline {lstlisting}{pysrc/ex1.py}{1}\protected@file@percent }
\@writefile{toc}{\contentsline {paragraph}{2}{1}\protected@file@percent }
\@writefile{lol}{\contentsline {lstlisting}{pysrc/ex2.py}{1}\protected@file@percent }
\@writefile{toc}{\contentsline {paragraph}{3}{1}\protected@file@percent }
\@writefile{lol}{\contentsline {lstlisting}{pysrc/ex3.py}{1}\protected@file@percent }
\@writefile{toc}{\contentsline {paragraph}{4}{2}\protected@file@percent }
\@writefile{toc}{\contentsline {paragraph}{5}{2}\protected@file@percent }
\@writefile{lol}{\contentsline {lstlisting}{pysrc/ex5.py}{2}\protected@file@percent }
\@writefile{toc}{\contentsline {paragraph}{6}{3}\protected@file@percent }
\@writefile{lol}{\contentsline {lstlisting}{pysrc/ex6.py}{3}\protected@file@percent }
\@writefile{toc}{\contentsline {paragraph}{7}{3}\protected@file@percent }
\@writefile{lol}{\contentsline {lstlisting}{pysrc/ex7.py}{3}\protected@file@percent }
\@writefile{toc}{\contentsline {paragraph}{8}{3}\protected@file@percent }
\@writefile{lol}{\contentsline {lstlisting}{pysrc/ex8.py}{4}\protected@file@percent }
\@writefile{toc}{\contentsline {paragraph}{9}{4}\protected@file@percent }
\@writefile{lol}{\contentsline {lstlisting}{pysrc/ex9.py}{4}\protected@file@percent }
\@writefile{toc}{\contentsline {paragraph}{10}{4}\protected@file@percent }
\@writefile{lol}{\contentsline {lstlisting}{pysrc/ex10.py}{4}\protected@file@percent }
\@writefile{toc}{\contentsline {paragraph}{11}{5}\protected@file@percent }
\@writefile{lol}{\contentsline {lstlisting}{pysrc/ex11.py}{5}\protected@file@percent }
\@writefile{toc}{\contentsline {paragraph}{12}{5}\protected@file@percent }
\@writefile{lol}{\contentsline {lstlisting}{pysrc/ex12.py}{5}\protected@file@percent }
\@writefile{toc}{\contentsline {paragraph}{13}{6}\protected@file@percent }
\@writefile{lol}{\contentsline {lstlisting}{pysrc/ex13.py}{6}\protected@file@percent }
\@writefile{toc}{\contentsline {paragraph}{14}{6}\protected@file@percent }
\@writefile{lol}{\contentsline {lstlisting}{pysrc/ex14.py}{6}\protected@file@percent }
\@writefile{toc}{\contentsline {paragraph}{15}{7}\protected@file@percent }
\@writefile{lol}{\contentsline {lstlisting}{pysrc/ex15.py}{7}\protected@file@percent }
\@writefile{toc}{\contentsline {paragraph}{16}{8}\protected@file@percent }
\@writefile{lol}{\contentsline {lstlisting}{pysrc/ex16.py}{8}\protected@file@percent }
