\relax 
\catcode `"\active 
\babel@aux{brazilian}{}
\@writefile{toc}{\contentsline {paragraph}{7}{1}\protected@file@percent }
\@writefile{toc}{\contentsline {paragraph}{8}{1}\protected@file@percent }
\@writefile{lol}{\contentsline {lstlisting}{pysrc/item8.py}{1}\protected@file@percent }
