\relax 
\bbl@beforestart
\catcode `"\active 
\babel@aux{brazilian}{}
\@writefile{toc}{\contentsline {paragraph}{1}{1}\protected@file@percent }
\@writefile{lol}{\contentsline {lstlisting}{pysrc/item1.py}{1}\protected@file@percent }
\@writefile{toc}{\contentsline {paragraph}{2}{4}\protected@file@percent }
\@writefile{lol}{\contentsline {lstlisting}{pysrc/item2.py}{4}\protected@file@percent }
\@writefile{toc}{\contentsline {paragraph}{3}{4}\protected@file@percent }
\@writefile{lol}{\contentsline {lstlisting}{pysrc/item3.py}{4}\protected@file@percent }
\@writefile{toc}{\contentsline {paragraph}{4}{5}\protected@file@percent }
\@writefile{lol}{\contentsline {lstlisting}{pysrc/item4.py}{5}\protected@file@percent }
\@writefile{toc}{\contentsline {paragraph}{5}{5}\protected@file@percent }
\@writefile{lol}{\contentsline {lstlisting}{pysrc/item5.py}{5}\protected@file@percent }
\@writefile{toc}{\contentsline {paragraph}{6}{6}\protected@file@percent }
\@writefile{lol}{\contentsline {lstlisting}{pysrc/item6.py}{6}\protected@file@percent }
\@writefile{toc}{\contentsline {paragraph}{7}{6}\protected@file@percent }
\@writefile{lol}{\contentsline {lstlisting}{pysrc/item7.py}{6}\protected@file@percent }
\@writefile{toc}{\contentsline {paragraph}{8}{7}\protected@file@percent }
\@writefile{lol}{\contentsline {lstlisting}{pysrc/item8.py}{7}\protected@file@percent }
